4 Enhancing Lead Monetization | LendingTree Business Case: Marketplace Optimization
…
# Calculate the product count for each category within each channel
table <- market_prod_matches %>%
  group_by(CHANNEL, CATEGORY_NAME) %>%
  summarise(Product_Count = n()) %>%
  ungroup() %>%
  left_join(total_rows_per_channel, by = "CHANNEL") %>%
  mutate(Proportion = Product_Count / Total_Rows) %>%
  arrange(CHANNEL, desc(Product_Count))

## `summarise()` has grouped output by 'CHANNEL'. You can override using the
## `.groups` argument.

table

## # A tibble: 45 × 5
##    CHANNEL         CATEGORY_NAME   Product_Count Total_Rows Proportion
##    <chr>           <chr>                   <int>      <int>      <dbl>
##  1 Brand Marketing Personal Loan            1974       2373    0.832  
##  2 Brand Marketing Vehicle Loan              205       2373    0.0864 
##  3 Brand Marketing Mortgage Loan             101       2373    0.0426 
##  4 Brand Marketing Home Equity                65       2373    0.0274 
##  5 Brand Marketing Business Loan              25       2373    0.0105 
##  6 Brand Marketing Credit Services             3       2373    0.00126
##  7 CRM             Personal Loan           11664      13284    0.878  
##  8 CRM             Mortgage Loan             652      13284    0.0491 
##  9 CRM             Home Equity               440      13284    0.0331 
## 10 CRM             Vehicle Loan              415      13284    0.0312 
## # ℹ 35 more rows
…
market_prod_matches %>%
  group_by(CATEGORY_NAME, CHANNEL) %>%
  summarise(Product_Count = n()) %>%
  ungroup() %>%
  left_join(total_rows_per_cat, by = "CATEGORY_NAME") %>%
  mutate(Proportion = Product_Count / Total_Rows) %>%
  arrange(CATEGORY_NAME, desc(Product_Count))

## `summarise()` has grouped output by 'CATEGORY_NAME'. You can override using the
## `.groups` argument.

## # A tibble: 45 × 5
##    CATEGORY_NAME   CHANNEL           Product_Count Total_Rows Proportion
##    <chr>           <chr>                     <int>      <int>      <dbl>
##  1 Business Loan   SEM                         697       1298     0.537 
##  2 Business Loan   Partner Marketing           241       1298     0.186 
##  3 Business Loan   Social                      120       1298     0.0924
##  4 Business Loan   CRM                         109       1298     0.0840
##  5 Business Loan   Offline                      40       1298     0.0308
##  6 Business Loan   SEO                          38       1298     0.0293
##  7 Business Loan   Display                      28       1298     0.0216
##  8 Business Loan   Brand Marketing              25       1298     0.0193
##  9 Credit Services SEM                          10         21     0.476 
## 10 Credit Services CRM                           4         21     0.190 
## # ℹ 35 more rows
